================================================================================
Testing Supabase API Endpoints
Timestamp: 2025-03-13 21:29:41.140832
================================================================================

Testing endpoint: http://localhost:8001/
Status code: 200
Response data:
{
  "message": "Welcome to the Simple FastAPI Application with Supabase Integration",
  "version": "1.0.0"
}
--------------------------------------------------------------------------------
Testing endpoint: http://localhost:8001/health
Status code: 200
Response data:
{
  "status": "healthy"
}
--------------------------------------------------------------------------------
Testing endpoint: http://localhost:8001/api/tables
Status code: 200
Response data:
{
  "tables": [
    "user_profiles",
    "user_notifications",
    "clients",
    "projects",
    "project_tasks",
    "invoices",
    "invoice_items",
    "payments",
    "bids",
    "bid_items",
    "expenses",
    "time_entries",
    "documents"
  ]
}
--------------------------------------------------------------------------------
Testing endpoint: http://localhost:8001/api/users
Status code: 200
Response data:
[
  {
    "id": "6ca7539b-4ead-4633-8a2e-62b41595530b",
    "email": "test_6ca7539b@example.com",
    "first_name": "Test",
    "last_name": "User",
    "role": "admin",
    "status": "active",
    "created_at": "2025-03-13T23:45:28.87483+00:00",
    "updated_at": "2025-03-13T23:45:28.87483+00:00"
  },
  {
    "id": "60501aca-ded4-4e8e-867e-8cff8f0dfa1b",
    "email": "test_60501aca@example.com",
    "first_name": "John",
    "last_name": "Doe",
    "role": "admin",
    "status": "active",
    "created_at": "2025-03-13T23:49:38.727154+00:00",
    "updated_at": "2025-03-13T23:49:38.727154+00:00"
  },
  {
    "id": "c25ccb0c-fad1-4693-a9a2-ec8ee1489f3f",
    "email": "test_c25ccb0c@example.com",
    "first_name": "John",
    "last_name": "Doe",
    "role": "admin",
    "status": "active",
    "created_at": "2025-03-13T23:52:11.873989+00:00",
    "updated_at": "2025-03-13T23:52:11.873989+00:00"
  },
  {
    "id": "5b59e406-41dc-45cb-ba3a-29366a23f20d",
    "email": "test_5b59e406@example.com",
    "first_name": "John",
    "last_name": "Doe",
    "role": "admin",
    "status": "active",
    "created_at": "2025-03-13T23:53:00.601823+00:00",
    "updated_at": "2025-03-13T23:53:00.601823+00:00"
  },
  {
    "id": "4705f343-84bf-41e3-81b8-0d9714cd0e93",
    "email": "test_4705f343@example.com",
    "first_name": "John",
    "last_name": "Doe",
    "role": "admin",
    "status": "active",
    "created_at": "2025-03-13T23:53:12.134601+00:00",
    "updated_at": "2025-03-13T23:53:12.134601+00:00"
  },
  {
    "id": "6a763271-2ab3-4818-bb92-e39707633b2b",
    "email": "test_6a763271@example.com",
    "first_name": "John",
    "last_name": "Doe",
    "role": "admin",
    "status": "active",
    "created_at": "2025-03-13T23:54:36.005658+00:00",
    "updated_at": "2025-03-13T23:54:36.005658+00:00"
  },
  {
    "id": "7c7947c3-2cbb-4c8b-804b-33e231ca65fc",
    "email": "test_7c7947c3@example.com",
    "first_name": "John",
    "last_name": "Doe",
    "role": "admin",
    "status": "active",
    "created_at": "2025-03-13T23:56:19.498097+00:00",
    "updated_at": "2025-03-13T23:56:19.498097+00:00"
  },
  {
    "id": "ec7651cb-ae77-4093-8775-16152a265609",
    "email": "test_ec7651cb@example.com",
    "first_name": "John",
    "last_name": "Doe",
    "role": "admin",
    "status": "active",
    "created_at": "2025-03-13T23:56:59.440239+00:00",
    "updated_at": "2025-03-13T23:56:59.440239+00:00"
  },
  {
    "id": "61453f02-6efa-43e3-9edd-b9a1ac428554",
    "email": "test_61453f02@example.com",
    "first_name": "John",
    "last_name": "Doe",
    "role": "admin",
    "status": "active",
    "created_at": "2025-03-13T23:57:35.70947+00:00",
    "updated_at": "2025-03-13T23:57:35.70947+00:00"
  },
  {
    "id": "92426250-b11e-41b6-bcbc-cb835540382d",
    "email": "test_92426250@example.com",
    "first_name": "John",
    "last_name": "Doe",
    "role": "admin",
    "status": "active",
    "created_at": "2025-03-13T23:58:13.190908+00:00",
    "updated_at": "2025-03-13T23:58:13.190908+00:00"
  },
  {
    "id": "a2787a35-7c9a-4f1a-8052-0aaf59b9c543",
    "email": "test_a2787a35@example.com",
    "first_name": "John",
    "last_name": "Doe",
    "role": "admin",
    "status": "active",
    "created_at": "2025-03-13T23:58:53.852338+00:00",
    "updated_at": "2025-03-13T23:58:53.852338+00:00"
  },
  {
    "id": "6caff9c9-414b-480a-b285-86d9ebac9793",
    "email": "test_6caff9c9@example.com",
    "first_name": "Test",
    "last_name": "User",
    "role": "employee",
    "status": "active",
    "created_at": "2025-03-13T20:02:53.822445+00:00",
    "updated_at": "2025-03-14T00:02:48.866789+00:00"
  }
]
--------------------------------------------------------------------------------
Testing endpoint: http://localhost:8001/api/tables/user_profiles/schema
Status code: 200
Response data:
{
  "table_name": "user_profiles",
  "columns": [
    {
      "column_name": "id",
      "data_type": "text",
      "is_nullable": "YES",
      "column_default": null
    },
    {
      "column_name": "auth_id",
      "data_type": "text",
      "is_nullable": "YES",
      "column_default": null
    },
    {
      "column_name": "email",
      "data_type": "text",
      "is_nullable": "YES",
      "column_default": null
    },
    {
      "column_name": "first_name",
      "data_type": "text",
      "is_nullable": "YES",
      "column_default": null
    },
    {
      "column_name": "last_name",
      "data_type": "text",
      "is_nullable": "YES",
      "column_default": null
    },
    {
      "column_name": "display_name",
      "data_type": "text",
      "is_nullable": "YES",
      "column_default": null
    },
    {
      "column_name": "role",
      "data_type": "text",
      "is_nullable": "YES",
      "column_default": null
    },
    {
      "column_name": "status",
      "data_type": "text",
      "is_nullable": "YES",
      "column_default": null
    },
    {
      "column_name": "phone",
      "data_type": "text",
      "is_nullable": "YES",
      "column_default": null
    },
    {
      "column_name": "avatar_url",
      "data_type": "text",
      "is_nullable": "YES",
      "column_default": null
    },
    {
      "column_name": "title",
      "data_type": "text",
      "is_nullable": "YES",
      "column_default": null
    },
    {
      "column_name": "department",
      "data_type": "text",
      "is_nullable": "YES",
      "column_default": null
    },
    {
      "column_name": "hire_date",
      "data_type": "text",
      "is_nullable": "YES",
      "column_default": null
    },
    {
      "column_name": "last_login",
      "data_type": "text",
      "is_nullable": "YES",
      "column_default": null
    },
    {
      "column_name": "preferences",
      "data_type": "json",
      "is_nullable": "YES",
      "column_default": null
    },
    {
      "column_name": "created_at",
      "data_type": "text",
      "is_nullable": "YES",
      "column_default": null
    },
    {
      "column_name": "updated_at",
      "data_type": "text",
      "is_nullable": "YES",
      "column_default": null
    }
  ],
  "note": "Schema is inferred from data types, nullable and default values are approximations"
}
--------------------------------------------------------------------------------
Testing endpoint: http://localhost:8001/api/tables/user_profiles/data
Status code: 200
Response data:
{
  "table_name": "user_profiles",
  "data": [
    {
      "id": "6ca7539b-4ead-4633-8a2e-62b41595530b",
      "auth_id": "auth_6ca7539b-4ead-4633-8a2e-62b41595530b",
      "email": "test_6ca7539b@example.com",
      "first_name": "Test",
      "last_name": "User",
      "display_name": "Test User",
      "role": "admin",
      "status": "active",
      "phone": "555-123-4567",
      "avatar_url": "https://randomuser.me/api/portraits/men/1.jpg",
      "title": "Project Manager",
      "department": "Management",
      "hire_date": "2025-03-13T23:45:28.87483+00:00",
      "last_login": "2025-03-13T23:45:28.87483+00:00",
      "preferences": {},
      "created_at": "2025-03-13T23:45:28.87483+00:00",
      "updated_at": "2025-03-13T23:45:28.87483+00:00"
    },
    {
      "id": "60501aca-ded4-4e8e-867e-8cff8f0dfa1b",
      "auth_id": "auth_60501aca-ded4-4e8e-867e-8cff8f0dfa1b",
      "email": "test_60501aca@example.com",
      "first_name": "John",
      "last_name": "Doe",
      "display_name": "John Doe",
      "role": "admin",
      "status": "active",
      "phone": "555-123-4567",
      "avatar_url": "https://randomuser.me/api/portraits/men/1.jpg",
      "title": "Project Manager",
      "department": "Management",
      "hire_date": null,
      "last_login": null,
      "preferences": null,
      "created_at": "2025-03-13T23:49:38.727154+00:00",
      "updated_at": "2025-03-13T23:49:38.727154+00:00"
    },
    {
      "id": "c25ccb0c-fad1-4693-a9a2-ec8ee1489f3f",
      "auth_id": "auth_c25ccb0c-fad1-4693-a9a2-ec8ee1489f3f",
      "email": "test_c25ccb0c@example.com",
      "first_name": "John",
      "last_name": "Doe",
      "display_name": "John Doe",
      "role": "admin",
      "status": "active",
      "phone": "555-123-4567",
      "avatar_url": "https://randomuser.me/api/portraits/men/1.jpg",
      "title": "Project Manager",
      "department": null,
      "hire_date": "2025-03-13T23:52:11.873989+00:00",
      "last_login": "2025-03-13T23:52:11.873989+00:00",
      "preferences": {},
      "created_at": "2025-03-13T23:52:11.873989+00:00",
      "updated_at": "2025-03-13T23:52:11.873989+00:00"
    },
    {
      "id": "5b59e406-41dc-45cb-ba3a-29366a23f20d",
      "auth_id": "auth_5b59e406-41dc-45cb-ba3a-29366a23f20d",
      "email": "test_5b59e406@example.com",
      "first_name": "John",
      "last_name": "Doe",
      "display_name": "John Doe",
      "role": "admin",
      "status": "active",
      "phone": "555-123-4567",
      "avatar_url": "https://randomuser.me/api/portraits/men/1.jpg",
      "title": "Project Manager",
      "department": null,
      "hire_date": "2025-03-13T23:53:00.601823+00:00",
      "last_login": "2025-03-13T23:53:00.601823+00:00",
      "preferences": {},
      "created_at": "2025-03-13T23:53:00.601823+00:00",
      "updated_at": "2025-03-13T23:53:00.601823+00:00"
    },
    {
      "id": "4705f343-84bf-41e3-81b8-0d9714cd0e93",
      "auth_id": "auth_4705f343-84bf-41e3-81b8-0d9714cd0e93",
      "email": "test_4705f343@example.com",
      "first_name": "John",
      "last_name": "Doe",
      "display_name": "John Doe",
      "role": "admin",
      "status": "active",
      "phone": "555-123-4567",
      "avatar_url": "https://randomuser.me/api/portraits/men/1.jpg",
      "title": "Project Manager",
      "department": null,
      "hire_date": "2025-03-13T23:53:12.134601+00:00",
      "last_login": "2025-03-13T23:53:12.134601+00:00",
      "preferences": {},
      "created_at": "2025-03-13T23:53:12.134601+00:00",
      "updated_at": "2025-03-13T23:53:12.134601+00:00"
    },
    {
      "id": "6a763271-2ab3-4818-bb92-e39707633b2b",
      "auth_id": "auth_6a763271-2ab3-4818-bb92-e39707633b2b",
      "email": "test_6a763271@example.com",
      "first_name": "John",
      "last_name": "Doe",
      "display_name": "John Doe",
      "role": "admin",
      "status": "active",
      "phone": "555-123-4567",
      "avatar_url": "https://randomuser.me/api/portraits/men/1.jpg",
      "title": "Project Manager",
      "department": null,
      "hire_date": "2025-03-13T23:54:36.005658+00:00",
      "last_login": "2025-03-13T23:54:36.005658+00:00",
      "preferences": {},
      "created_at": "2025-03-13T23:54:36.005658+00:00",
      "updated_at": "2025-03-13T23:54:36.005658+00:00"
    },
    {
      "id": "7c7947c3-2cbb-4c8b-804b-33e231ca65fc",
      "auth_id": "auth_7c7947c3-2cbb-4c8b-804b-33e231ca65fc",
      "email": "test_7c7947c3@example.com",
      "first_name": "John",
      "last_name": "Doe",
      "display_name": "John Doe",
      "role": "admin",
      "status": "active",
      "phone": "555-123-4567",
      "avatar_url": "https://randomuser.me/api/portraits/men/1.jpg",
      "title": "Project Manager",
      "department": null,
      "hire_date": "2025-03-13T23:56:19.498097+00:00",
      "last_login": "2025-03-13T23:56:19.498097+00:00",
      "preferences": {},
      "created_at": "2025-03-13T23:56:19.498097+00:00",
      "updated_at": "2025-03-13T23:56:19.498097+00:00"
    },
    {
      "id": "ec7651cb-ae77-4093-8775-16152a265609",
      "auth_id": "auth_ec7651cb-ae77-4093-8775-16152a265609",
      "email": "test_ec7651cb@example.com",
      "first_name": "John",
      "last_name": "Doe",
      "display_name": "John Doe",
      "role": "admin",
      "status": "active",
      "phone": "555-123-4567",
      "avatar_url": "https://randomuser.me/api/portraits/men/1.jpg",
      "title": "Project Manager",
      "department": null,
      "hire_date": "2025-03-13T23:56:59.440239+00:00",
      "last_login": "2025-03-13T23:56:59.440239+00:00",
      "preferences": {},
      "created_at": "2025-03-13T23:56:59.440239+00:00",
      "updated_at": "2025-03-13T23:56:59.440239+00:00"
    },
    {
      "id": "61453f02-6efa-43e3-9edd-b9a1ac428554",
      "auth_id": "auth_61453f02-6efa-43e3-9edd-b9a1ac428554",
      "email": "test_61453f02@example.com",
      "first_name": "John",
      "last_name": "Doe",
      "display_name": "John Doe",
      "role": "admin",
      "status": "active",
      "phone": "555-123-4567",
      "avatar_url": "https://randomuser.me/api/portraits/men/1.jpg",
      "title": "Project Manager",
      "department": null,
      "hire_date": "2025-03-13T23:57:35.70947+00:00",
      "last_login": "2025-03-13T23:57:35.70947+00:00",
      "preferences": {},
      "created_at": "2025-03-13T23:57:35.70947+00:00",
      "updated_at": "2025-03-13T23:57:35.70947+00:00"
    },
    {
      "id": "92426250-b11e-41b6-bcbc-cb835540382d",
      "auth_id": "auth_92426250-b11e-41b6-bcbc-cb835540382d",
      "email": "test_92426250@example.com",
      "first_name": "John",
      "last_name": "Doe",
      "display_name": "John Doe",
      "role": "admin",
      "status": "active",
      "phone": "555-123-4567",
      "avatar_url": "https://randomuser.me/api/portraits/men/1.jpg",
      "title": "Project Manager",
      "department": null,
      "hire_date": "2025-03-13T23:58:13.190908+00:00",
      "last_login": "2025-03-13T23:58:13.190908+00:00",
      "preferences": {},
      "created_at": "2025-03-13T23:58:13.190908+00:00",
      "updated_at": "2025-03-13T23:58:13.190908+00:00"
    }
  ],
  "pagination": {
    "page": 1,
    "page_size": 10,
    "total_count": 12,
    "total_pages": 2
  }
}
--------------------------------------------------------------------------------

Testing complete!
